…
D use sakila;
D PRAGMA show_tables;
┌──────────────────────────────────┐
│               name               │
│             varchar              │
├──────────────────────────────────┤
│ actor                            │
│ address                          │
│ category                         │
│ city                             │
│ country                          │
│ customer                         │
│ customer_list                    │
│ film                             │
│ film_actor                       │
│ film_category                    │
│ film_list                        │
│ film_text                        │
│ idx_actor_last_name              │
│ idx_customer_fk_address_id       │
│ idx_customer_fk_store_id         │
│ idx_customer_last_name           │
│ idx_fk_city_id                   │
│ idx_fk_country_id                │
│ idx_fk_customer_id               │
│ idx_fk_film_actor_actor          │
│       ·                          │
│       ·                          │
│       ·                          │
│ sales_by_store                   │
│ sqlite_autoindex_actor_1         │
│ sqlite_autoindex_address_1       │
│ sqlite_autoindex_category_1      │
│ sqlite_autoindex_city_1          │
│ sqlite_autoindex_country_1       │
│ sqlite_autoindex_customer_1      │
│ sqlite_autoindex_film_1          │
│ sqlite_autoindex_film_actor_1    │
│ sqlite_autoindex_film_category_1 │
│ sqlite_autoindex_film_text_1     │
│ sqlite_autoindex_inventory_1     │
│ sqlite_autoindex_language_1      │
│ sqlite_autoindex_payment_1       │
│ sqlite_autoindex_rental_1        │
│ sqlite_autoindex_staff_1         │
│ sqlite_autoindex_store_1         │
│ staff                            │
│ staff_list                       │
│ store                            │
├──────────────────────────────────┤
│        61 rows (40 shown)        │
└──────────────────────────────────┘
…
D SELECT * FROM sqlite_scan('sakila.db', 'film');
140417704974208 >>> SqliteBind file_name: sakila.db table_name: film
140417704974208 >>> SqliteBind max_rowid: 1000 rows_per_group: 122880
140417704974208 >>> SqliteInitGlobalState
140417704974208 >>> SqliteInitLocalState global db =>> result->db 0
140417704974208 >>> SqliteParallelStateNext gstate.position 0 bind_data->max_rowid 1000 status 1
140417704974208 >>> SqliteInitInternal
140417704974208 >>> SqliteInitInternal created local_state.db 0x55b911accae0
140417704974208 >>> SqliteInitInternal prepared SQL:
SELECT "film_id", "title", "description", "release_year", "language_id", "original_language_id", "rental_duration", "rental_rate", "length", "replacement_cost", "rating", "special_features", "last_update" FROM "film" WHERE ROWID BETWEEN 0 AND 122879
140417704974208 >>> SqliteScan SELECT "film_id", "title", "description", "release_year", "language_id", "original_language_id", "rental_duration", "rental_rate", "length", "replacement_cost", "rating", "special_features", "last_update" FROM "film" WHERE ROWID BETWEEN 0 AND 122879
140417704974208 >>> SqliteScan out_idx 1000 !has_more
140417704974208 >>> SqliteScan SELECT "film_id", "title", "description", "release_year", "language_id", "original_language_id", "rental_duration", "rental_rate", "length", "replacement_cost", "rating", "special_features", "last_update" FROM "film" WHERE ROWID BETWEEN 0 AND 122879
140417704974208 >>> SqliteParallelStateNext gstate.position 122880 bind_data->max_rowid 1000 status 0
┌─────────┬──────────────────────┬──────────────────────┬──────────────┬───┬────────┬──────────────────┬─────────┬──────────────────────┬─────────────────────┐
│ film_id │        title         │     description      │ release_year │ … │ length │ replacement_cost │ rating  │   special_features   │     last_update     │
│  int64  │       varchar        │       varchar        │   varchar    │   │ int64  │      double      │ varchar │       varchar        │      timestamp      │
├─────────┼──────────────────────┼──────────────────────┼──────────────┼───┼────────┼──────────────────┼─────────┼──────────────────────┼─────────────────────┤
│       1 │ ACADEMY DINOSAUR     │ A Epic Drama of a …  │ 2006         │ … │     86 │            20.99 │ PG      │ Deleted Scenes,Beh…  │ 2021-03-06 15:52:00 │
│       2 │ ACE GOLDFINGER       │ A Astounding Epist…  │ 2006         │ … │     48 │            12.99 │ G       │ Trailers,Deleted S…  │ 2021-03-06 15:52:00 │
│       3 │ ADAPTATION HOLES     │ A Astounding Refle…  │ 2006         │ … │     50 │            18.99 │ NC-17   │ Trailers,Deleted S…  │ 2021-03-06 15:52:00 │
│       4 │ AFFAIR PREJUDICE     │ A Fanciful Documen…  │ 2006         │ … │    117 │            26.99 │ G       │ Commentaries,Behin…  │ 2021-03-06 15:52:00 │
│       5 │ AFRICAN EGG          │ A Fast-Paced Docum…  │ 2006         │ … │    130 │            22.99 │ G       │ Deleted Scenes       │ 2021-03-06 15:52:00 │
│       6 │ AGENT TRUMAN         │ A Intrepid Panoram…  │ 2006         │ … │    169 │            17.99 │ PG      │ Deleted Scenes       │ 2021-03-06 15:52:00 │
│       7 │ AIRPLANE SIERRA      │ A Touching Saga of…  │ 2006         │ … │     62 │            28.99 │ PG-13   │ Trailers,Deleted S…  │ 2021-03-06 15:52:00 │
│       8 │ AIRPORT POLLOCK      │ A Epic Tale of a M…  │ 2006         │ … │     54 │            15.99 │ R       │ Trailers             │ 2021-03-06 15:52:00 │
│       9 │ ALABAMA DEVIL        │ A Thoughtful Panor…  │ 2006         │ … │    114 │            21.99 │ PG-13   │ Trailers,Deleted S…  │ 2021-03-06 15:52:00 │
│      10 │ ALADDIN CALENDAR     │ A Action-Packed Ta…  │ 2006         │ … │     63 │            24.99 │ NC-17   │ Trailers,Deleted S…  │ 2021-03-06 15:52:00 │
│      11 │ ALAMO VIDEOTAPE      │ A Boring Epistle o…  │ 2006         │ … │    126 │            16.99 │ G       │ Commentaries,Behin…  │ 2021-03-06 15:52:00 │
│      12 │ ALASKA PHANTOM       │ A Fanciful Saga of…  │ 2006         │ … │    136 │            22.99 │ PG      │ Commentaries,Delet…  │ 2021-03-06 15:52:00 │
│      13 │ ALI FOREVER          │ A Action-Packed Dr…  │ 2006         │ … │    150 │            21.99 │ PG      │ Deleted Scenes,Beh…  │ 2021-03-06 15:52:00 │
│      14 │ ALICE FANTASIA       │ A Emotional Drama …  │ 2006         │ … │     94 │            23.99 │ NC-17   │ Trailers,Deleted S…  │ 2021-03-06 15:52:00 │
│      15 │ ALIEN CENTER         │ A Brilliant Drama …  │ 2006         │ … │     46 │            10.99 │ NC-17   │ Trailers,Commentar…  │ 2021-03-06 15:52:00 │
│      16 │ ALLEY EVOLUTION      │ A Fast-Paced Drama…  │ 2006         │ … │    180 │            23.99 │ NC-17   │ Trailers,Commentar…  │ 2021-03-06 15:52:00 │
│      17 │ ALONE TRIP           │ A Fast-Paced Chara…  │ 2006         │ … │     82 │            14.99 │ R       │ Trailers,Behind th…  │ 2021-03-06 15:52:00 │
│      18 │ ALTER VICTORY        │ A Thoughtful Drama…  │ 2006         │ … │     57 │            27.99 │ PG-13   │ Trailers,Behind th…  │ 2021-03-06 15:52:00 │
│      19 │ AMADEUS HOLY         │ A Emotional Displa…  │ 2006         │ … │    113 │            20.99 │ PG      │ Commentaries,Delet…  │ 2021-03-06 15:52:00 │
│      20 │ AMELIE HELLFIGHTERS  │ A Boring Drama of …  │ 2006         │ … │     79 │            23.99 │ R       │ Commentaries,Delet…  │ 2021-03-06 15:52:00 │
│       · │       ·              │          ·           │  ·           │ · │      · │              ·   │ ·       │         ·            │          ·          │
│       · │       ·              │          ·           │  ·           │ · │      · │              ·   │ ·       │         ·            │          ·          │
│       · │       ·              │          ·           │  ·           │ · │      · │              ·   │ ·       │         ·            │          ·          │
│     981 │ WOLVES DESIRE        │ A Fast-Paced Drama…  │ 2006         │ … │     55 │            13.99 │ NC-17   │ Behind the Scenes    │ 2021-03-06 15:52:08 │
│     982 │ WOMEN DORADO         │ A Insightful Docum…  │ 2006         │ … │    126 │            23.99 │ R       │ Deleted Scenes,Beh…  │ 2021-03-06 15:52:08 │
│     983 │ WON DARES            │ A Unbelieveable Do…  │ 2006         │ … │    105 │            18.99 │ PG      │ Behind the Scenes    │ 2021-03-06 15:52:08 │
│     984 │ WONDERFUL DROP       │ A Boring Panorama …  │ 2006         │ … │    126 │            20.99 │ NC-17   │ Commentaries         │ 2021-03-06 15:52:08 │
│     985 │ WONDERLAND CHRISTMAS │ A Awe-Inspiring Ch…  │ 2006         │ … │    111 │            19.99 │ PG      │ Commentaries         │ 2021-03-06 15:52:08 │
│     986 │ WONKA SEA            │ A Brilliant Saga o…  │ 2006         │ … │     85 │            24.99 │ NC-17   │ Trailers,Commentar…  │ 2021-03-06 15:52:08 │
│     987 │ WORDS HUNTER         │ A Action-Packed Re…  │ 2006         │ … │    116 │            13.99 │ PG      │ Trailers,Commentar…  │ 2021-03-06 15:52:08 │
│     988 │ WORKER TARZAN        │ A Action-Packed Ya…  │ 2006         │ … │    139 │            26.99 │ R       │ Trailers,Commentar…  │ 2021-03-06 15:52:08 │
│     989 │ WORKING MICROCOSMOS  │ A Stunning Epistle…  │ 2006         │ … │     74 │            22.99 │ R       │ Commentaries,Delet…  │ 2021-03-06 15:52:08 │
│     990 │ WORLD LEATHERNECKS   │ A Unbelieveable Ta…  │ 2006         │ … │    171 │            13.99 │ PG-13   │ Trailers,Behind th…  │ 2021-03-06 15:52:08 │
│     991 │ WORST BANGER         │ A Thrilling Drama …  │ 2006         │ … │    185 │            26.99 │ PG      │ Deleted Scenes,Beh…  │ 2021-03-06 15:52:08 │
│     992 │ WRATH MILE           │ A Intrepid Reflect…  │ 2006         │ … │    176 │            17.99 │ NC-17   │ Trailers,Commentar…  │ 2021-03-06 15:52:08 │
│     993 │ WRONG BEHAVIOR       │ A Emotional Saga o…  │ 2006         │ … │    178 │            10.99 │ PG-13   │ Trailers,Behind th…  │ 2021-03-06 15:52:08 │
│     994 │ WYOMING STORM        │ A Awe-Inspiring Pa…  │ 2006         │ … │    100 │            29.99 │ PG-13   │ Deleted Scenes       │ 2021-03-06 15:52:08 │
│     995 │ YENTL IDAHO          │ A Amazing Display …  │ 2006         │ … │     86 │            11.99 │ R       │ Trailers,Commentar…  │ 2021-03-06 15:52:08 │
│     996 │ YOUNG LANGUAGE       │ A Unbelieveable Ya…  │ 2006         │ … │    183 │             9.99 │ G       │ Trailers,Behind th…  │ 2021-03-06 15:52:08 │
│     997 │ YOUTH KICK           │ A Touching Drama o…  │ 2006         │ … │    179 │            14.99 │ NC-17   │ Trailers,Behind th…  │ 2021-03-06 15:52:08 │
│     998 │ ZHIVAGO CORE         │ A Fateful Yarn of …  │ 2006         │ … │    105 │            10.99 │ NC-17   │ Deleted Scenes       │ 2021-03-06 15:52:08 │
│     999 │ ZOOLANDER FICTION    │ A Fateful Reflecti…  │ 2006         │ … │    101 │            28.99 │ R       │ Trailers,Deleted S…  │ 2021-03-06 15:52:08 │
│    1000 │ ZORRO ARK            │ A Intrepid Panoram…  │ 2006         │ … │     50 │            18.99 │ NC-17   │ Trailers,Commentar…  │ 2021-03-06 15:52:08 │
├─────────┴──────────────────────┴──────────────────────┴──────────────┴───┴────────┴──────────────────┴─────────┴──────────────────────┴─────────────────────┤
│ 1000 rows (40 shown)                                                                                                                   13 columns (9 shown) │
└─────────────────────────────────────────────────────────────────────────────────────────────────────────────────────────────────────────────────────────────┘
…
